2022/Chua/TEK00002.CSV

Model,TBS2074
Firmware Version,v1.25.03

Point Format,Y
Horizontal Units,S
Horizontal Scale,0.001
Sample Interval,8e-06
Filter Frequency,1e+08
Record Length,2000
Gating,0.0% to 100.0%
Probe Attenuation,10
Vertical Units,V
Vertical Offset,0
Vertical Scale,2
Label,
TIME,CH1
-8.000e-03,-0.235156
-7.992e-03,-0.2375
-7.984e-03,-0.2375
-7.976e-03,-0.426953
-7.968e-03,-0.426953
-7.960e-03,-0.839453
-7.952e-03,-0.839453
-7.944e-03,-1.43828
-7.936e-03,-1.43828
-7.928e-03,-2.13398
-7.920e-03,-2.13398
-7.912e-03,-2.81328
-7.904e-03,-2.81328
-7.896e-03,-3.425
-7.888e-03,-3.425
-7.880e-03,-3.97539
-7.872e-03,-3.97539
-7.864e-03,-4.42656
-7.856e-03,-4.42656
-7.848e-03,-4.75898
-7.840e-03,-4.75898
-7.832e-03,-4.96094
-7.824e-03,-4.96094
-7.816e-03,-5.0043
-7.808e-03,-5.0043
-7.800e-03,-4.91602
-7.792e-03,-4.91602
-7.784e-03,-4.67188
-7.776e-03,-4.67188
-7.768e-03,-4.29766
-7.760e-03,-4.29766
-7.752e-03,-3.82266
-7.744e-03,-3.82266
-7.736e-03,-3.26875
-7.728e-03,-3.26875
-7.720e-03,-2.68242
-7.712e-03,-2.68242
-7.704e-03,-2.09375
-7.696e-03,-2.09375
-7.688e-03,-1.52578
-7.680e-03,-1.52578
-7.672e-03,-1.05352
-7.664e-03,-1.05352
-7.656e-03,-0.6875
-7.648e-03,-0.6875
-7.640e-03,-0.436719
-7.632e-03,-0.436719
-7.624e-03,-0.276953
-7.616e-03,-0.276953
-7.608e-03,-0.114844
-7.600e-03,-0.114844
-7.592e-03,-0.05
-7.584e-03,-0.05
-7.576e-03,-0.101172
-7.568e-03,-0.101172
-7.560e-03,-0.221875
-7.552e-03,-0.221875
-7.544e-03,-0.440625
-7.536e-03,-0.440625
-7.528e-03,-0.95625
-7.520e-03,-0.95625
-7.512e-03,-1.65547
-7.504e-03,-1.65547
-7.496e-03,-2.38789
-7.488e-03,-2.38789
-7.480e-03,-3.0582
-7.472e-03,-3.0582
-7.464e-03,-3.62539
-7.456e-03,-3.62539
-7.448e-03,-4.11875
-7.440e-03,-4.11875
-7.432e-03,-4.48594
-7.424e-03,-4.48594
-7.416e-03,-4.72422
-7.408e-03,-4.72422
-7.400e-03,-4.82148
-7.392e-03,-4.82148
-7.384e-03,-4.7918
-7.376e-03,-4.7918
-7.368e-03,-4.61016
-7.360e-03,-4.61016
-7.352e-03,-4.29688
-7.344e-03,-4.29688
-7.336e-03,-3.88008
-7.328e-03,-3.88008
-7.320e-03,-3.38984
-7.312e-03,-3.38984
-7.304e-03,-2.83398
-7.296e-03,-2.83398
-7.288e-03,-2.27656
-7.280e-03,-2.27656
-7.272e-03,-1.74805
-7.264e-03,-1.74805
-7.256e-03,-1.26797
-7.248e-03,-1.26797
-7.240e-03,-0.886719
-7.232e-03,-0.886719
-7.224e-03,-0.639844
-7.216e-03,-0.639844
-7.208e-03,-0.5
-7.200e-03,-0.5
-7.192e-03,-0.371484
-7.184e-03,-0.371484
-7.176e-03,-0.266406
-7.168e-03,-0.266406
-7.160e-03,-0.267578
-7.152e-03,-0.267578
-7.144e-03,-0.424609
-7.136e-03,-0.424609
-7.128e-03,-0.795703
-7.120e-03,-0.795703
-7.112e-03,-1.39688
-7.104e-03,-1.39688
-7.096e-03,-2.07383
-7.088e-03,-2.07383
-7.080e-03,-2.75664
-7.072e-03,-2.75664
-7.064e-03,-3.3707
-7.056e-03,-3.3707
-7.048e-03,-3.92461
-7.040e-03,-3.92461
-7.032e-03,-4.40117
-7.024e-03,-4.40117
-7.016e-03,-4.75195
-7.008e-03,-4.75195
-7.000e-03,-4.96133
-6.992e-03,-4.96133
-6.984e-03,-5.02266
-6.976e-03,-5.02266
-6.968e-03,-4.94141
-6.960e-03,-4.94141
-6.952e-03,-4.70898
-6.944e-03,-4.70898
-6.936e-03,-4.36289
-6.928e-03,-4.36289
-6.920e-03,-3.90391
-6.912e-03,-3.90391
-6.904e-03,-3.34023
-6.896e-03,-3.34023
-6.888e-03,-2.74258
-6.880e-03,-2.74258
-6.872e-03,-2.13867
-6.864e-03,-2.13867
-6.856e-03,-1.56875
-6.848e-03,-1.56875
-6.840e-03,-1.0832
-6.832e-03,-1.0832
-6.824e-03,-0.694922
-6.816e-03,-0.694922
-6.808e-03,-0.445703
-6.800e-03,-0.445703
-6.792e-03,-0.279297
-6.784e-03,-0.279297
-6.776e-03,-0.117188
-6.768e-03,-0.117188
-6.760e-03,-0.0453125
-6.752e-03,-0.0453125
-6.744e-03,-0.0691406
-6.736e-03,-0.0691406
-6.728e-03,-0.185547
-6.720e-03,-0.185547
-6.712e-03,-0.373828
-6.704e-03,-0.373828
-6.696e-03,-0.819922
-6.688e-03,-0.819922
-6.680e-03,-1.50156
-6.672e-03,-1.50156
-6.664e-03,-2.24648
-6.656e-03,-2.24648
-6.648e-03,-2.9332
-6.640e-03,-2.9332
-6.632e-03,-3.51914
-6.624e-03,-3.51914
-6.616e-03,-4.02266
-6.608e-03,-4.02266
-6.600e-03,-4.39922
-6.592e-03,-4.39922
-6.584e-03,-4.67031
-6.576e-03,-4.67031
-6.568e-03,-4.79844
-6.560e-03,-4.79844
-6.552e-03,-4.78477
-6.544e-03,-4.78477
-6.536e-03,-4.62969
-6.528e-03,-4.62969
-6.520e-03,-4.33203
-6.512e-03,-4.33203
-6.504e-03,-3.94883
-6.496e-03,-3.94883
-6.488e-03,-3.47344
-6.480e-03,-3.47344
-6.472e-03,-2.93594
-6.464e-03,-2.93594
-6.456e-03,-2.36523
-6.448e-03,-2.36523
-6.440e-03,-1.82422
-6.432e-03,-1.82422
-6.424e-03,-1.36055
-6.416e-03,-1.36055
-6.408e-03,-0.96875
-6.400e-03,-0.96875
-6.392e-03,-0.694922
-6.384e-03,-0.694922
-6.376e-03,-0.543359
-6.368e-03,-0.543359
-6.360e-03,-0.435156
-6.352e-03,-0.435156
-6.344e-03,-0.321094
-6.336e-03,-0.321094
-6.328e-03,-0.300781
-6.320e-03,-0.300781
-6.312e-03,-0.464063
-6.304e-03,-0.464063
-6.296e-03,-0.857813
-6.288e-03,-0.857813
-6.280e-03,-1.44766
-6.272e-03,-1.44766
-6.264e-03,-2.12227
-6.256e-03,-2.12227
-6.248e-03,-2.77422
-6.240e-03,-2.77422
-6.232e-03,-3.41445
-6.224e-03,-3.41445
-6.216e-03,-3.95898
-6.208e-03,-3.95898
-6.200e-03,-4.43203
-6.192e-03,-4.43203
-6.184e-03,-4.78086
-6.176e-03,-4.78086
-6.168e-03,-4.99375
-6.160e-03,-4.99375
-6.152e-03,-5.07773
-6.144e-03,-5.07773
-6.136e-03,-5.00313
-6.128e-03,-5.00313
-6.120e-03,-4.76445
-6.112e-03,-4.76445
-6.104e-03,-4.38672
-6.096e-03,-4.38672
-6.088e-03,-3.91992
-6.080e-03,-3.91992
-6.072e-03,-3.35898
-6.064e-03,-3.35898
-6.056e-03,-2.75664
-6.048e-03,-2.75664
-6.040e-03,-2.14648
-6.032e-03,-2.14648
-6.024e-03,-1.56523
-6.016e-03,-1.56523
-6.008e-03,-1.06836
-6.000e-03,-1.06836
-5.992e-03,-0.668359
-5.984e-03,-0.668359
-5.976e-03,-0.414453
-5.968e-03,-0.414453
-5.960e-03,-0.219922
-5.952e-03,-0.219922
-5.944e-03,-0.0539063
-5.936e-03,-0.0539063
-5.928e-03,0.00234375
-5.920e-03,0.00234375
-5.912e-03,0.0226562
-5.904e-03,0.0226562
-5.896e-03,-0.0910156
-5.888e-03,-0.0910156
-5.880e-03,-0.298047
-5.872e-03,-0.298047
-5.864e-03,-0.657031
-5.856e-03,-0.657031
-5.848e-03,-1.3043
-5.840e-03,-1.3043
-5.832e-03,-2.05703
-5.824e-03,-2.05703
-5.816e-03,-2.7543
-5.808e-03,-2.7543
-5.800e-03,-3.36758
-5.792e-03,-3.36758
-5.784e-03,-3.87891
-5.776e-03,-3.87891
-5.768e-03,-4.28398
-5.760e-03,-4.28398
-5.752e-03,-4.56875
-5.744e-03,-4.56875
-5.736e-03,-4.72266
-5.728e-03,-4.72266
-5.720e-03,-4.72383
-5.712e-03,-4.72383
-5.704e-03,-4.58438
-5.696e-03,-4.58438
-5.688e-03,-4.33047
-5.680e-03,-4.33047
-5.672e-03,-3.97227
-5.664e-03,-3.97227
-5.656e-03,-3.51875
-5.648e-03,-3.51875
-5.640e-03,-3.00195
-5.632e-03,-3.00195
-5.624e-03,-2.45938
-5.616e-03,-2.45938
-5.608e-03,-1.93633
-5.600e-03,-1.93633
-5.592e-03,-1.45508
-5.584e-03,-1.45508
-5.576e-03,-1.06602
-5.568e-03,-1.06602
-5.560e-03,-0.782422
-5.552e-03,-0.782422
-5.544e-03,-0.642578
-5.536e-03,-0.642578
-5.528e-03,-0.554297
-5.520e-03,-0.554297
-5.512e-03,-0.468359
-5.504e-03,-0.468359
-5.496e-03,-0.474609
-5.488e-03,-0.474609
-5.480e-03,-0.691406
-5.472e-03,-0.691406
-5.464e-03,-1.13477
-5.456e-03,-1.13477
-5.448e-03,-1.73203
-5.440e-03,-1.73203
-5.432e-03,-2.39297
-5.424e-03,-2.39297
-5.416e-03,-3.03047
-5.408e-03,-3.03047
-5.400e-03,-3.63359
-5.392e-03,-3.63359
-5.384e-03,-4.16211
-5.376e-03,-4.16211
-5.368e-03,-4.60273
-5.360e-03,-4.60273
-5.352e-03,-4.92539
-5.344e-03,-4.92539
-5.336e-03,-5.12148
-5.328e-03,-5.12148
-5.320e-03,-5.15742
-5.312e-03,-5.15742
-5.304e-03,-5.03281
-5.296e-03,-5.03281
-5.288e-03,-4.76914
-5.280e-03,-4.76914
-5.272e-03,-4.36328
-5.264e-03,-4.36328
-5.256e-03,-3.84297
-5.248e-03,-3.84297
-5.240e-03,-3.27188
-5.232e-03,-3.27188
-5.224e-03,-2.63477
-5.216e-03,-2.63477
-5.208e-03,-2.01055
-5.200e-03,-2.01055
-5.192e-03,-1.42734
-5.184e-03,-1.42734
-5.176e-03,-0.925391
-5.168e-03,-0.925391
-5.160e-03,-0.548438
-5.152e-03,-0.548438
-5.144e-03,-0.303516
-5.136e-03,-0.303516
-5.128e-03,-0.112109
-5.120e-03,-0.112109
-5.112e-03,0.0113281
-5.104e-03,0.0113281
-5.096e-03,0.126953
-5.088e-03,0.126953
-5.080e-03,0.180078
-5.072e-03,0.180078
-5.064e-03,0.113672
-5.056e-03,0.113672
-5.048e-03,-0.103906
-5.040e-03,-0.103906
-5.032e-03,-0.400391
-5.024e-03,-0.400391
-5.016e-03,-0.93125
-5.008e-03,-0.93125
-5.000e-03,-1.6625
-4.992e-03,-1.6625
-4.984e-03,-2.38359
-4.976e-03,-2.38359
-4.968e-03,-3.02109
-4.960e-03,-3.02109
-4.952e-03,-3.54766
-4.944e-03,-3.54766
-4.936e-03,-3.96758
-4.928e-03,-3.96758
-4.920e-03,-4.26133
-4.912e-03,-4.26133
-4.904e-03,-4.45273
-4.896e-03,-4.45273
-4.888e-03,-4.49531
-4.880e-03,-4.49531
-4.872e-03,-4.41016
-4.864e-03,-4.41016
-4.856e-03,-4.21914
-4.848e-03,-4.21914
-4.840e-03,-3.89961
-4.832e-03,-3.89961
-4.824e-03,-3.49961
-4.816e-03,-3.49961
-4.808e-03,-3.06016
-4.800e-03,-3.06016
-4.792e-03,-2.58594
-4.784e-03,-2.58594
-4.776e-03,-2.11211
-4.768e-03,-2.11211
-4.760e-03,-1.68203
-4.752e-03,-1.68203
-4.744e-03,-1.32266
-4.736e-03,-1.32266
-4.728e-03,-1.05117
-4.720e-03,-1.05117
-4.712e-03,-0.897656
-4.704e-03,-0.897656
-4.696e-03,-0.868359
-4.688e-03,-0.868359
-4.680e-03,-0.893359
-4.672e-03,-0.893359
-4.664e-03,-1.07422
-4.656e-03,-1.07422
-4.648e-03,-1.4125
-4.640e-03,-1.4125
-4.632e-03,-1.87344
-4.624e-03,-1.87344
-4.616e-03,-2.4082
-4.608e-03,-2.4082
-4.600e-03,-2.95547
-4.592e-03,-2.95547
-4.584e-03,-3.52266
-4.576e-03,-3.52266
-4.568e-03,-4.04102
-4.560e-03,-4.04102
-4.552e-03,-4.49102
-4.544e-03,-4.49102
-4.536e-03,-4.86094
-4.528e-03,-4.86094
-4.520e-03,-5.12227
-4.512e-03,-5.12227
-4.504e-03,-5.18984
-4.496e-03,-5.18984
-4.488e-03,-5.13516
-4.480e-03,-5.13516
-4.472e-03,-4.91445
-4.464e-03,-4.91445
-4.456e-03,-4.58398
-4.448e-03,-4.58398
-4.440e-03,-4.11992
-4.432e-03,-4.11992
-4.424e-03,-3.57109
-4.416e-03,-3.57109
-4.408e-03,-2.94766
-4.400e-03,-2.94766
-4.392e-03,-2.31719
-4.384e-03,-2.31719
-4.376e-03,-1.7125
-4.368e-03,-1.7125
-4.360e-03,-1.16875
-4.352e-03,-1.16875
-4.344e-03,-0.717969
-4.336e-03,-0.717969
-4.328e-03,-0.419531
-4.320e-03,-0.419531
-4.312e-03,-0.218359
-4.304e-03,-0.218359
-4.296e-03,-0.046875
-4.288e-03,-0.046875
-4.280e-03,0.0351562
-4.272e-03,0.0351562
-4.264e-03,0.121094
-4.256e-03,0.121094
-4.248e-03,0.126172
-4.240e-03,0.126172
-4.232e-03,-0.0390625
-4.224e-03,-0.0390625
-4.216e-03,-0.33125
-4.208e-03,-0.33125
-4.200e-03,-0.758203
-4.192e-03,-0.758203
-4.184e-03,-1.46133
-4.176e-03,-1.46133
-4.168e-03,-2.20352
-4.160e-03,-2.20352
-4.152e-03,-2.87109
-4.144e-03,-2.87109
-4.136e-03,-3.4543
-4.128e-03,-3.4543
-4.120e-03,-3.90938
-4.112e-03,-3.90938
-4.104e-03,-4.24453
-4.096e-03,-4.24453
-4.088e-03,-4.45781
-4.080e-03,-4.45781
-4.072e-03,-4.56328
-4.064e-03,-4.56328
-4.056e-03,-4.525
-4.048e-03,-4.525
-4.040e-03,-4.35039
-4.032e-03,-4.35039
-4.024e-03,-4.06875
-4.016e-03,-4.06875
-4.008e-03,-3.68281
-4.000e-03,-3.68281
-3.992e-03,-3.24531
-3.984e-03,-3.24531
-3.976e-03,-2.76016
-3.968e-03,-2.76016
-3.960e-03,-2.2625
-3.952e-03,-2.2625
-3.944e-03,-1.78828
-3.936e-03,-1.78828
-3.928e-03,-1.37813
-3.920e-03,-1.37813
-3.912e-03,-1.06602
-3.904e-03,-1.06602
-3.896e-03,-0.870703
-3.888e-03,-0.870703
-3.880e-03,-0.786719
-3.872e-03,-0.786719
-3.864e-03,-0.76875
-3.856e-03,-0.76875
-3.848e-03,-0.838281
-3.840e-03,-0.838281
-3.832e-03,-1.0918
-3.824e-03,-1.0918
-3.816e-03,-1.53008
-3.808e-03,-1.53008
-3.800e-03,-2.04922
-3.792e-03,-2.04922
-3.784e-03,-2.6293
-3.776e-03,-2.6293
-3.768e-03,-3.21055
-3.760e-03,-3.21055
-3.752e-03,-3.75391
-3.744e-03,-3.75391
-3.736e-03,-4.27461
-3.728e-03,-4.27461
-3.720e-03,-4.70664
-3.712e-03,-4.70664
-3.704e-03,-5.02578
-3.696e-03,-5.02578
-3.688e-03,-5.19336
-3.680e-03,-5.19336
-3.672e-03,-5.19336
-3.664e-03,-5.19336
-3.656e-03,-5.06797
-3.648e-03,-5.06797
-3.640e-03,-4.79688
-3.632e-03,-4.79688
-3.624e-03,-4.38242
-3.616e-03,-4.38242
-3.608e-03,-3.86719
-3.600e-03,-3.86719
-3.592e-03,-3.27266
-3.584e-03,-3.27266
-3.576e-03,-2.63242
-3.568e-03,-2.63242
-3.560e-03,-2.00469
-3.552e-03,-2.00469
-3.544e-03,-1.40898
-3.536e-03,-1.40898
-3.528e-03,-0.894531
-3.520e-03,-0.894531
-3.512e-03,-0.501563
-3.504e-03,-0.501563
-3.496e-03,-0.250781
-3.488e-03,-0.250781
-3.480e-03,-0.0855469
-3.472e-03,-0.0855469
-3.464e-03,0.0386719
-3.456e-03,0.0386719
-3.448e-03,0.169922
-3.440e-03,0.169922
-3.432e-03,0.254297
-3.424e-03,0.254297
-3.416e-03,0.175
-3.408e-03,0.175
-3.400e-03,-0.0246094
-3.392e-03,-0.0246094
-3.384e-03,-0.317969
-3.376e-03,-0.317969
-3.368e-03,-0.778906
-3.360e-03,-0.778906
-3.352e-03,-1.49844
-3.344e-03,-1.49844
-3.336e-03,-2.2375
-3.328e-03,-2.2375
-3.320e-03,-2.87383
-3.312e-03,-2.87383
-3.304e-03,-3.40469
-3.296e-03,-3.40469
-3.288e-03,-3.83242
-3.280e-03,-3.83242
-3.272e-03,-4.14063
-3.264e-03,-4.14063
-3.256e-03,-4.31563
-3.248e-03,-4.31563
-3.240e-03,-4.39961
-3.232e-03,-4.39961
-3.224e-03,-4.34648
-3.216e-03,-4.34648
-3.208e-03,-4.17656
-3.200e-03,-4.17656
-3.192e-03,-3.88477
-3.184e-03,-3.88477
-3.176e-03,-3.51797
-3.168e-03,-3.51797
-3.160e-03,-3.09844
-3.152e-03,-3.09844
-3.144e-03,-2.64219
-3.136e-03,-2.64219
-3.128e-03,-2.18516
-3.120e-03,-2.18516
-3.112e-03,-1.78516
-3.104e-03,-1.78516
-3.096e-03,-1.42695
-3.088e-03,-1.42695
-3.080e-03,-1.14414
-3.072e-03,-1.14414
-3.064e-03,-0.978125
-3.056e-03,-0.978125
-3.048e-03,-0.950391
-3.040e-03,-0.950391
-3.032e-03,-1.02539
-3.024e-03,-1.02539
-3.016e-03,-1.21367
-3.008e-03,-1.21367
-3.000e-03,-1.55313
-2.992e-03,-1.55313
-2.984e-03,-1.97383
-2.976e-03,-1.97383
-2.968e-03,-2.46289
-2.960e-03,-2.46289
-2.952e-03,-3.00156
-2.944e-03,-3.00156
-2.936e-03,-3.52188
-2.928e-03,-3.52188
-2.920e-03,-4.02813
-2.912e-03,-4.02813
-2.904e-03,-4.46758
-2.896e-03,-4.46758
-2.888e-03,-4.80313
-2.880e-03,-4.80313
-2.872e-03,-5.0332
-2.864e-03,-5.0332
-2.856e-03,-5.12891
-2.848e-03,-5.12891
-2.840e-03,-5.06328
-2.832e-03,-5.06328
-2.824e-03,-4.85625
-2.816e-03,-4.85625
-2.808e-03,-4.53242
-2.800e-03,-4.53242
-2.792e-03,-4.07539
-2.784e-03,-4.07539
-2.776e-03,-3.53555
-2.768e-03,-3.53555
-2.760e-03,-2.93789
-2.752e-03,-2.93789
-2.744e-03,-2.32188
-2.736e-03,-2.32188
-2.728e-03,-1.74727
-2.720e-03,-1.74727
-2.712e-03,-1.21094
-2.704e-03,-1.21094
-2.696e-03,-0.786719
-2.688e-03,-0.786719
-2.680e-03,-0.497266
-2.672e-03,-0.497266
-2.664e-03,-0.30625
-2.656e-03,-0.30625
-2.648e-03,-0.135156
-2.640e-03,-0.135156
-2.632e-03,-0.04375
-2.624e-03,-0.04375
-2.616e-03,-0.025
-2.608e-03,-0.025
-2.600e-03,-0.102734
-2.592e-03,-0.102734
-2.584e-03,-0.272656
-2.576e-03,-0.272656
-2.568e-03,-0.590234
-2.560e-03,-0.590234
-2.552e-03,-1.21406
-2.544e-03,-1.21406
-2.536e-03,-1.96914
-2.528e-03,-1.96914
-2.520e-03,-2.67383
-2.512e-03,-2.67383
-2.504e-03,-3.30117
-2.496e-03,-3.30117
-2.488e-03,-3.85117
-2.480e-03,-3.85117
-2.472e-03,-4.27695
-2.464e-03,-4.27695
-2.456e-03,-4.58359
-2.448e-03,-4.58359
-2.440e-03,-4.74922
-2.432e-03,-4.74922
-2.424e-03,-4.77227
-2.416e-03,-4.77227
-2.408e-03,-4.66719
-2.400e-03,-4.66719
-2.392e-03,-4.43438
-2.384e-03,-4.43438
-2.376e-03,-4.06563
-2.368e-03,-4.06563
-2.360e-03,-3.60117
-2.352e-03,-3.60117
-2.344e-03,-3.08945
-2.336e-03,-3.08945
-2.328e-03,-2.55742
-2.320e-03,-2.55742
-2.312e-03,-2.01719
-2.304e-03,-2.01719
-2.296e-03,-1.51445
-2.288e-03,-1.51445
-2.280e-03,-1.10234
-2.272e-03,-1.10234
-2.264e-03,-0.799609
-2.256e-03,-0.799609
-2.248e-03,-0.611719
-2.240e-03,-0.611719
-2.232e-03,-0.509766
-2.224e-03,-0.509766
-2.216e-03,-0.4
-2.208e-03,-0.4
-2.200e-03,-0.351563
-2.192e-03,-0.351563
-2.184e-03,-0.469141
-2.176e-03,-0.469141
-2.168e-03,-0.808984
-2.160e-03,-0.808984
-2.152e-03,-1.38086
-2.144e-03,-1.38086
-2.136e-03,-2.04414
-2.128e-03,-2.04414
-2.120e-03,-2.71133
-2.112e-03,-2.71133
-2.104e-03,-3.32891
-2.096e-03,-3.32891
-2.088e-03,-3.89531
-2.080e-03,-3.89531
-2.072e-03,-4.38555
-2.064e-03,-4.38555
-2.056e-03,-4.76641
-2.048e-03,-4.76641
-2.040e-03,-4.99766
-2.032e-03,-4.99766
-2.024e-03,-5.09102
-2.016e-03,-5.09102
-2.008e-03,-5.05234
-2.000e-03,-5.05234
-1.992e-03,-4.84414
-1.984e-03,-4.84414
-1.976e-03,-4.5082
-1.968e-03,-4.5082
-1.960e-03,-4.05781
-1.952e-03,-4.05781
-1.944e-03,-3.49609
-1.936e-03,-3.49609
-1.928e-03,-2.89141
-1.920e-03,-2.89141
-1.912e-03,-2.28555
-1.904e-03,-2.28555
-1.896e-03,-1.68086
-1.888e-03,-1.68086
-1.880e-03,-1.13672
-1.872e-03,-1.13672
-1.864e-03,-0.700391
-1.856e-03,-0.700391
-1.848e-03,-0.419922
-1.840e-03,-0.419922
-1.832e-03,-0.227734
-1.824e-03,-0.227734
-1.816e-03,-0.059375
-1.808e-03,-0.059375
-1.800e-03,0.01875
-1.792e-03,0.01875
-1.784e-03,0.0792969
-1.776e-03,0.0792969
-1.768e-03,0.0429687
-1.760e-03,0.0429687
-1.752e-03,-0.160156
-1.744e-03,-0.160156
-1.736e-03,-0.431641
-1.728e-03,-0.431641
-1.720e-03,-0.939063
-1.712e-03,-0.939063
-1.704e-03,-1.68945
-1.696e-03,-1.68945
-1.688e-03,-2.42656
-1.680e-03,-2.42656
-1.672e-03,-3.05391
-1.664e-03,-3.05391
-1.656e-03,-3.61406
-1.648e-03,-3.61406
-1.640e-03,-4.06719
-1.632e-03,-4.06719
-1.624e-03,-4.38281
-1.616e-03,-4.38281
-1.608e-03,-4.57344
-1.600e-03,-4.57344
-1.592e-03,-4.64844
-1.584e-03,-4.64844
-1.576e-03,-4.56094
-1.568e-03,-4.56094
-1.560e-03,-4.34453
-1.552e-03,-4.34453
-1.544e-03,-4.05117
-1.536e-03,-4.05117
-1.528e-03,-3.65508
-1.520e-03,-3.65508
-1.512e-03,-3.16289
-1.504e-03,-3.16289
-1.496e-03,-2.65664
-1.488e-03,-2.65664
-1.480e-03,-2.15352
-1.472e-03,-2.15352
-1.464e-03,-1.66992
-1.456e-03,-1.66992
-1.448e-03,-1.2707
-1.440e-03,-1.2707
-1.432e-03,-0.95625
-1.424e-03,-0.95625
-1.416e-03,-0.767578
-1.408e-03,-0.767578
-1.400e-03,-0.691797
-1.392e-03,-0.691797
-1.384e-03,-0.650391
-1.376e-03,-0.650391
-1.368e-03,-0.691016
-1.360e-03,-0.691016
-1.352e-03,-0.910938
-1.344e-03,-0.910938
-1.336e-03,-1.35156
-1.328e-03,-1.35156
-1.320e-03,-1.93164
-1.312e-03,-1.93164
-1.304e-03,-2.525
-1.296e-03,-2.525
-1.288e-03,-3.13633
-1.280e-03,-3.13633
-1.272e-03,-3.71758
-1.264e-03,-3.71758
-1.256e-03,-4.24453
-1.248e-03,-4.24453
-1.240e-03,-4.67852
-1.232e-03,-4.67852
-1.224e-03,-4.99883
-1.216e-03,-4.99883
-1.208e-03,-5.1707
-1.200e-03,-5.1707
-1.192e-03,-5.22656
-1.184e-03,-5.22656
-1.176e-03,-5.09922
-1.168e-03,-5.09922
-1.160e-03,-4.80977
-1.152e-03,-4.80977
-1.144e-03,-4.40703
-1.136e-03,-4.40703
-1.128e-03,-3.88164
-1.120e-03,-3.88164
-1.112e-03,-3.28711
-1.104e-03,-3.28711
-1.096e-03,-2.64688
-1.088e-03,-2.64688
-1.080e-03,-2.01328
-1.072e-03,-2.01328
-1.064e-03,-1.41836
-1.056e-03,-1.41836
-1.048e-03,-0.891406
-1.040e-03,-0.891406
-1.032e-03,-0.502734
-1.024e-03,-0.502734
-1.016e-03,-0.235156
-1.008e-03,-0.235156
-1.000e-03,-0.0601563
-9.920e-04,-0.0601563
-9.840e-04,0.0382812
-9.760e-04,0.0382812
-9.680e-04,0.185547
-9.600e-04,0.185547
-9.520e-04,0.280859
-9.440e-04,0.280859
-9.360e-04,0.238281
-9.280e-04,0.238281
-9.200e-04,0.0292969
-9.120e-04,0.0292969
-9.040e-04,-0.274219
-8.960e-04,-0.274219
-8.880e-04,-0.680078
-8.800e-04,-0.680078
-8.720e-04,-1.35938
-8.640e-04,-1.35938
-8.560e-04,-2.09766
-8.480e-04,-2.09766
-8.400e-04,-2.74453
-8.320e-04,-2.74453
-8.240e-04,-3.29961
-8.160e-04,-3.29961
-8.080e-04,-3.74648
-8.000e-04,-3.74648
-7.920e-04,-4.05273
-7.840e-04,-4.05273
-7.760e-04,-4.26133
-7.680e-04,-4.26133
-7.600e-04,-4.34648
-7.520e-04,-4.34648
-7.440e-04,-4.31016
-7.360e-04,-4.31016
-7.280e-04,-4.12695
-7.200e-04,-4.12695
-7.120e-04,-3.88438
-7.040e-04,-3.88438
-6.960e-04,-3.54219
-6.880e-04,-3.54219
-6.800e-04,-3.14844
-6.720e-04,-3.14844
-6.640e-04,-2.70156
-6.560e-04,-2.70156
-6.480e-04,-2.26914
-6.400e-04,-2.26914
-6.320e-04,-1.8625
-6.240e-04,-1.8625
-6.160e-04,-1.49258
-6.080e-04,-1.49258
-6.000e-04,-1.23086
-5.920e-04,-1.23086
-5.840e-04,-1.05156
-5.760e-04,-1.05156
-5.680e-04,-0.994141
-5.600e-04,-0.994141
-5.520e-04,-1.06484
-5.440e-04,-1.06484
-5.360e-04,-1.24805
-5.280e-04,-1.24805
-5.200e-04,-1.56953
-5.120e-04,-1.56953
-5.040e-04,-1.96758
-4.960e-04,-1.96758
-4.880e-04,-2.43828
-4.800e-04,-2.43828
-4.720e-04,-2.94727
-4.640e-04,-2.94727
-4.560e-04,-3.46992
-4.480e-04,-3.46992
-4.400e-04,-3.95859
-4.320e-04,-3.95859
-4.240e-04,-4.39766
-4.160e-04,-4.39766
-4.080e-04,-4.73945
-4.000e-04,-4.73945
-3.920e-04,-4.9668
-3.840e-04,-4.9668
-3.760e-04,-5.07148
-3.680e-04,-5.07148
-3.600e-04,-5.00039
-3.520e-04,-5.00039
-3.440e-04,-4.8207
-3.360e-04,-4.8207
-3.280e-04,-4.49414
-3.200e-04,-4.49414
-3.120e-04,-4.07578
-3.040e-04,-4.07578
-2.960e-04,-3.54844
-2.880e-04,-3.54844
-2.800e-04,-2.97305
-2.720e-04,-2.97305
-2.640e-04,-2.37813
-2.560e-04,-2.37813
-2.480e-04,-1.80078
-2.400e-04,-1.80078
-2.320e-04,-1.28594
-2.240e-04,-1.28594
-2.160e-04,-0.86875
-2.080e-04,-0.86875
-2.000e-04,-0.559375
-1.920e-04,-0.559375
-1.840e-04,-0.385938
-1.760e-04,-0.385938
